﻿{
  "$schema": "http://json.schemastore.org/launchsettings.json",
  "iisSettings": {
    "windowsAuthentication": false, 
    "anonymousAuthentication": true,
    "iisExpress": {
      "applicationUrl": "http://localhost:57231",
      "sslPort": 44315
    }
  },
  "profiles": {
    "IIS Express": {
      "commandName": "IISExpress",
      "launchBrowser": true,
      "launchUrl": "api/version",
      "environmentVariables": {
        "ASPNETCORE_ENVIRONMENT": "Development"
      }
    },
    "CheckList.Interfaces": {
      "commandName": "Project",
      "launchBrowser": true,
      "launchUrl": "api/version",
      "applicationUrl": "http://localhost:25780",
      "environmentVariables": {
        "ASPNETCORE_ENVIRONMENT": "Development"
      }
    }
  }
}